Lab5/Lab5OVR/simulation/qsim/overflowDetect.msim.vcd
$comment
	File created using the following command:
		vcd file overflowDetect.msim.vcd -direction
$end
$date
	Sun Nov 09 23:50:14 2014
$end
$version
	ModelSim Version 10.1d
$end
$timescale
	1ps
$end
$scope module overflowDetect_vlg_vec_tst $end
$var reg 1 ! A3 $end
$var reg 1 " B3 $end
$var reg 1 # R3 $end
$var wire 1 $ OVR $end
$var wire 1 % sampler $end
$scope module i1 $end
$var wire 1 & gnd $end
$var wire 1 ' vcc $end
$var wire 1 ( unknown $end
$var tri1 1 ) devclrn $end
$var tri1 1 * devpor $end
$var tri1 1 + devoe $end
$var wire 1 , R3~combout $end
$var wire 1 - A3~combout $end
$var wire 1 . B3~combout $end
$var wire 1 / inst2~combout $end
$upscope $end
$upscope $end
$enddefinitions $end
#0
$dumpvars
0!
0"
0#
0$
x%
0&
1'
x(
1)
1*
1+
0,
0-
0.
0/
$end
#50000
1#
1,
0%
1/
1$
#100000
1"
0#
1.
0,
1%
0/
0$
#150000
1#
1,
0%
#200000
1!
0"
0#
1-
0.
0,
1%
#250000
1#
1,
0%
#300000
1"
0#
1.
0,
1%
1/
1$
#350000
1#
1,
0%
0/
0$
#400000
0!
0"
0#
0-
0.
0,
1%
