lab4/Lab4DE2/simulation/qsim/Lab4DE2.msim.vcd
$comment
	File created using the following command:
		vcd file Lab4DE2.msim.vcd -direction
$end
$date
	Fri Sep 26 10:59:02 2014
$end
$version
	ModelSim Version 10.1d
$end
$timescale
	1ps
$end
$scope module Lab4DE2_vlg_vec_tst $end
$var reg 1 ! A $end
$var reg 1 " B $end
$var reg 1 # Cin $end
$var wire 1 $ Carryout $end
$var wire 1 % Sum $end
$var wire 1 & sampler $end
$scope module i1 $end
$var wire 1 ' gnd $end
$var wire 1 ( vcc $end
$var wire 1 ) unknown $end
$var tri1 1 * devclrn $end
$var tri1 1 + devpor $end
$var tri1 1 , devoe $end
$var wire 1 - B~combout $end
$var wire 1 . Cin~combout $end
$var wire 1 / A~combout $end
$var wire 1 0 inst2~0_combout $end
$var wire 1 1 inst1~0_combout $end
$upscope $end
$upscope $end
$enddefinitions $end
#0
$dumpvars
0!
0"
0#
0$
0%
x&
0'
1(
x)
1*
1+
1,
0-
0.
0/
00
01
$end
#50000
1#
1.
0&
10
1%
#100000
1"
0#
1-
0.
1&
#150000
1#
1.
0&
00
0%
#200000
1!
0"
0#
1/
0-
0.
1&
10
1%
#250000
1#
1.
0&
11
00
1$
0%
#300000
1"
0#
1-
0.
1&
#350000
1#
1.
0&
10
1%
#400000
0!
0"
0#
0/
0-
0.
1&
01
00
0$
0%
