Lab2/Lab 2/simulation/qsim/Lab2.msim.vcd
$comment
	File created using the following command:
		vcd file Lab2.msim.vcd -direction
$end
$date
	Fri Sep 05 10:07:49 2014
$end
$version
	ModelSim Version 10.1d
$end
$timescale
	1ps
$end
$scope module Lab2_vlg_vec_tst $end
$var reg 1 ! A $end
$var reg 1 " B $end
$var reg 1 # C $end
$var reg 1 $ D $end
$var wire 1 % f $end
$var wire 1 & sampler $end
$scope module i1 $end
$var wire 1 ' gnd $end
$var wire 1 ( vcc $end
$var wire 1 ) unknown $end
$var tri1 1 * devclrn $end
$var tri1 1 + devpor $end
$var tri1 1 , devoe $end
$var wire 1 - C~combout $end
$var wire 1 . B~combout $end
$var wire 1 / inst3~0_combout $end
$upscope $end
$upscope $end
$enddefinitions $end
#0
$dumpvars
0!
0"
0#
1$
0%
x&
0'
1(
x)
1*
1+
1,
0-
0.
0/
$end
#50000
1"
1.
0&
1/
1%
#100000
1#
0$
1-
1&
#150000
1!
1$
0&
#200000
0#
0-
1&
#250000
0"
1#
0.
1-
0&
#300000
0!
0$
1&
#400000
0#
1$
0-
0&
0/
0%
#450000
1!
1#
1-
1&
1/
1%
#500000
0$
0&
#600000
0!
1&
#650000
1"
1.
0&
#700000
1!
0"
0.
1&
#750000
0#
0-
0&
0/
0%
#800000
0!
1#
1-
1&
1/
1%
#900000
1$
0&
#950000
0#
0-
1&
0/
0%
