Lab2/Lab 2/RippleCarryAdder/simulation/qsim/RippleAdder.msim.vcd
$comment
	File created using the following command:
		vcd file RippleAdder.msim.vcd -direction
$end
$date
	Fri Sep 05 11:26:29 2014
$end
$version
	ModelSim Version 10.1d
$end
$timescale
	1ps
$end
$scope module RippleAdder_vlg_vec_tst $end
$var reg 1 ! A0 $end
$var reg 1 " A1 $end
$var reg 1 # A2 $end
$var reg 1 $ A3 $end
$var reg 1 % B0 $end
$var reg 1 & B1 $end
$var reg 1 ' B2 $end
$var reg 1 ( B3 $end
$var reg 1 ) Cin $end
$var wire 1 * CarryOut $end
$var wire 1 + S0 $end
$var wire 1 , S1 $end
$var wire 1 - S2 $end
$var wire 1 . S3 $end
$var wire 1 / sampler $end
$scope module i1 $end
$var wire 1 0 gnd $end
$var wire 1 1 vcc $end
$var wire 1 2 unknown $end
$var tri1 1 3 devclrn $end
$var tri1 1 4 devpor $end
$var tri1 1 5 devoe $end
$var wire 1 6 B0~combout $end
$var wire 1 7 A0~combout $end
$var wire 1 8 Cin~combout $end
$var wire 1 9 inst|inst5~0_combout $end
$var wire 1 : A1~combout $end
$var wire 1 ; B1~combout $end
$var wire 1 < inst|inst6~0_combout $end
$var wire 1 = inst2|inst5~combout $end
$var wire 1 > B2~combout $end
$var wire 1 ? A2~combout $end
$var wire 1 @ inst3|inst5~0_combout $end
$var wire 1 A inst3|inst5~combout $end
$var wire 1 B inst3|inst6~1_combout $end
$var wire 1 C inst3|inst6~2_combout $end
$var wire 1 D inst3|inst6~0_combout $end
$var wire 1 E B3~combout $end
$var wire 1 F A3~combout $end
$var wire 1 G inst4|inst5~combout $end
$var wire 1 H inst4|inst6~0_combout $end
$upscope $end
$upscope $end
$enddefinitions $end
#0
$dumpvars
0!
0"
0#
0$
0%
0&
0'
0(
0)
0*
0+
0,
0-
0.
x/
00
11
x2
13
14
15
06
07
08
09
0:
0;
0<
0=
0>
0?
0@
0A
0B
0C
0D
0E
0F
0G
0H
$end
#50000
1!
1%
17
16
0/
1<
1=
1,
#100000
1"
1&
0!
0%
1:
1;
07
06
1/
1A
0<
0=
1-
0,
#150000
1!
1%
17
16
0/
1<
1=
1,
#200000
1#
1'
0"
0&
0!
0%
1?
1>
0:
0;
07
06
1/
1D
1B
0A
0<
1G
0=
0-
1.
0,
#250000
1!
1%
17
16
0/
1<
1=
1,
#300000
1"
1&
0!
0%
1:
1;
07
06
1/
1C
1A
0<
0=
1-
0,
#350000
1!
1%
17
16
0/
1<
1=
1,
#400000
1$
0#
0'
0"
0&
0!
0%
1F
0?
0>
0:
0;
07
06
1/
1H
0G
0D
0B
0C
0A
0<
0H
1G
0=
1*
0.
0-
0*
1.
0,
#450000
1(
1!
1%
1E
17
16
0/
1H
0G
1<
1=
1*
0.
1,
#500000
1"
1&
0!
0%
1:
1;
07
06
1/
1A
0<
0=
1-
0,
#550000
1!
1%
17
16
0/
1<
1=
1,
#600000
1#
1'
0"
0&
0!
0%
1?
1>
0:
0;
07
06
1/
1D
1B
0A
0<
1G
0=
0-
1.
0,
#650000
1!
1%
17
16
0/
1<
1=
1,
#700000
1"
1&
0!
0%
1:
1;
07
06
1/
1C
1A
0<
0=
1-
0,
#750000
1!
1%
17
16
0/
1<
1=
1,
#800000
0$
0(
0#
0'
0"
0&
0!
0%
0F
0E
0?
0>
0:
0;
07
06
1/
0H
0D
0B
0C
0A
0<
0G
0=
0*
0-
0.
0,
#900000
1)
1!
1%
18
17
16
0/
1<
19
1=
1+
1,
#950000
0!
0%
07
06
1/
0<
0=
0,
#1000000
1#
1'
1!
1%
1?
1>
17
16
0/
1D
1B
1<
1G
1=
1.
1,
#1050000
0!
0%
07
06
1/
0<
0=
0,
#1100000
0#
0'
1!
1%
0?
0>
17
16
0/
0D
0B
1<
0G
1=
0.
1,
#1150000
0!
0%
07
06
1/
0<
0=
0,
#1200000
1#
1'
1!
1%
1?
1>
17
16
0/
1D
1B
1<
1G
1=
1.
1,
#1250000
0!
0%
07
06
1/
0<
0=
0,
#1300000
0#
0'
1!
1%
0?
0>
17
16
0/
0D
0B
1<
0G
1=
0.
1,
#1350000
0)
0!
0%
08
07
06
1/
0<
09
0=
0+
0,
