Lab3AdderSubtractor/simulation/qsim/Lab3AdderSubtractor.msim.vcd
$comment
	File created using the following command:
		vcd file Lab3AdderSubtractor.msim.vcd -direction
$end
$date
	Thu Oct 16 22:02:00 2014
$end
$version
	ModelSim Version 10.1d
$end
$timescale
	1ps
$end
$scope module Lab3AdderSubtractor_vlg_vec_tst $end
$var reg 1 ! A0 $end
$var reg 1 " A1 $end
$var reg 1 # A2 $end
$var reg 1 $ A3 $end
$var reg 1 % B0 $end
$var reg 1 & B1 $end
$var reg 1 ' B2 $end
$var reg 1 ( B3 $end
$var reg 1 ) SignalIn $end
$var wire 1 * CarryOut $end
$var wire 1 + S0 $end
$var wire 1 , S1 $end
$var wire 1 - S2 $end
$var wire 1 . S3 $end
$var wire 1 / sampler $end
$scope module i1 $end
$var wire 1 0 gnd $end
$var wire 1 1 vcc $end
$var wire 1 2 unknown $end
$var tri1 1 3 devclrn $end
$var tri1 1 4 devpor $end
$var tri1 1 5 devoe $end
$var wire 1 6 A0~combout $end
$var wire 1 7 B0~combout $end
$var wire 1 8 inst|inst5~0_combout $end
$var wire 1 9 B1~combout $end
$var wire 1 : SignalIn~combout $end
$var wire 1 ; A1~combout $end
$var wire 1 < inst|inst6~0_combout $end
$var wire 1 = inst2|inst5~combout $end
$var wire 1 > inst2|inst6~0_combout $end
$var wire 1 ? B2~combout $end
$var wire 1 @ A2~combout $end
$var wire 1 A inst3|inst5~0_combout $end
$var wire 1 B B3~combout $end
$var wire 1 C inst3|inst6~0_combout $end
$var wire 1 D A3~combout $end
$var wire 1 E inst4|inst5~0_combout $end
$var wire 1 F inst4|inst6~0_combout $end
$upscope $end
$upscope $end
$enddefinitions $end
#0
$dumpvars
1!
0"
1#
0$
1%
0&
0'
0(
0)
0*
0+
1,
1-
0.
x/
00
11
x2
13
14
15
16
17
08
09
0:
0;
1<
1=
0>
0?
1@
1A
0B
0C
0D
0E
0F
$end
#50000
1"
1;
0/
1>
0=
1C
0A
0,
1E
0-
1.
#100000
1&
1'
1(
19
1?
1B
1/
1=
1A
1F
0E
1,
1-
1*
0.
#150000
0#
1$
0%
0"
0@
1D
07
0;
0/
0A
1E
0<
18
0=
0>
1=
0-
1.
1+
0,
0C
1A
1,
0E
1-
0.
#200000
0!
1"
06
1;
1/
08
1>
0=
1C
0A
0+
0,
1E
0-
1.
#250000
0&
1#
1!
0"
09
1@
16
0;
0/
0>
1A
18
0A
1-
1+
0-
#300000
0'
0(
0$
0#
0!
0?
0B
0D
0@
06
1/
0C
0F
08
0E
0*
0+
0.
#350000
1)
1%
1#
1!
1:
17
1@
16
0/
1E
1C
1=
1<
1F
0E
1>
0=
1.
1,
1A
1*
0.
0,
1-
#400000
1"
1;
1/
1=
1,
#450000
1&
1'
1(
19
1?
1B
0/
0=
0A
0F
1E
0,
0-
0*
1.
#500000
1$
0%
0#
0"
1D
07
0@
0;
1/
1F
0E
18
0C
1A
0>
1=
0F
1E
0A
1*
0.
1+
1-
1,
0*
1.
0-
#550000
0!
1"
06
1;
0/
08
1>
0=
1A
0+
0,
1-
#600000
0&
1#
1!
0"
09
1@
16
0;
1/
1C
0A
18
1F
0E
0-
1+
1*
0.
#650000
0)
0'
0(
0$
0#
0!
0:
0?
0B
0D
0@
06
0/
0F
1E
0C
1A
0>
1=
0<
08
0E
0A
0=
0*
1.
1-
1,
0+
0.
0-
0,
